…
Let’s check the songs which have strong sentiment on it. I will consider magnitude over 2.

lyrics_sentiment_analysis %>%
  bind_cols(lyrics_untidy %>%
              arrange(track_n) %>%
              group_by(album_title,track_n) %>%
              summarise() %>%
              ungroup() %>%
              select(track_n)) %>%
  filter(magnitude > 2) %>%
  arrange(score)
## # A tibble: 29 x 6
##    magnitude score album_title    track_title       lyrics         track_n
##        <dbl> <dbl> <chr>          <chr>             <chr>            <int>
##  1       3.1  -0.7 rubber soul    Nowhere Man       "He's a real …       3
##  2       2.6  -0.5 abbey road     I Want You (She'… "I want you\n…       4
##  3       4.5  -0.4 rubber soul    What Goes On      "What goes on…       7
##  4       2.2  -0.3 with the beat… Little Child      "Little child…       6
##  5       5.2  -0.3 revolver       Eleanor Rigby     "Ah, look at …       4
##  6       2.6  -0.2 rubber soul    I'm Looking Thro… "I'm looking …       9
##  7       2.1  -0.1 the beatles (… The Continuing S… "Hey, Bungalo…       4
##  8       2.6  -0.1 the beatles (… Helter Skelter    "When I get t…       8
##  9       2.3  -0.1 abbey road     She Came in Thro… "Oh, listen t…      11
## 10       4.9   0   with the beat… Please Mister Po… "(Wait!)\nOh …       8
## # ... with 19 more rows
…
